2 Табличные данные. Анализ датасета – Программирование на R для филологов
…
filter() выбирает наблюдения (ряды) на основе их значений;

summarise() обобщает значения;

arrange() изменяет порядок следования строк.

Все эти глаголы естественным образом сочетаются с функцией group_by(), которая позволяет выполнять любые операции “по группам”, и с оператором pipe |> из пакета magrittr.

В итоге получается лаконичный и читаемый код. Узнаем, за какие года у нас есть элегии.

elegies_tbl |> 
  count(Year) |> 
  print()

# A tibble: 23 × 2
   Year      n
   <chr> <int>
 1 1815      5
 2 1816      8
 3 1817     33
 4 1818     13
 5 1819     15
 6 1820     33
 7 1821     37
 8 1822     29
 9 1823     25
10 1824     31
# ℹ 13 more rows

Отберем элегии 1824 г. и выясним, какие авторы их писали.

elegies_tbl |> 
  filter(Year == 1824) |> # используем логический оператор для выбора
  count(Author) |>  #  можно задать  аргумент sort = TRUE
  arrange(-n)  |>   # не нужно, если sort = TRUE
  print()

# A tibble: 24 × 2
   Author                  n
   <chr>               <int>
 1 Жуковский В.А.          3
 2 Бестужев-Рюмин М.А.     2
 3 Дмитриев М.А.           2
 4 Павлов Н.Ф.             2
 5 Туманский В.И.          2
 6 Языков Н.М.             2
 7 [**]                    1
 8 [-й-]                   1
 9 [2.17]                  1
10 [Без подписи]           1
# ℹ 14 more rows
…
Создадим таблицу со всеми текстами и их id. Функция str_c() из пакета stringr позволяет объединить несколько строк в одну (через пробел).

elegies_texts <- tibble(title = elegies_files,
                        text = map_chr(elegies_files, 
                                       \(x) str_c(read_lines(x), collapse = " ")
                                       )
                        )

elegies_texts |> 
  print()

# A tibble: 509 × 2
   title                         text                                           
   <chr>                         <chr>                                          
 1 corpus/1_DGlebov_1818.txt     "Надеясь сердца грусть разлукой облегчить, Беж…
 2 corpus/10_Baratynsky_1820.txt "Мечты волшебные, вы скрылись от очей! Сбылися…
 3 corpus/100_Pushkin_1825.txt   "Когда, любовию и негой упоенный, Безмолвно пр…
 4 corpus/101_Jazykov_1825.txt   "Счастлив, кто с юношеских дней, Живыми чувств…
 5 corpus/102_Jazykov_1825.txt   "Свободен я: уже не трачу Ни дня, ни ночи, ни …
 6 corpus/103_Jazykov_1825.txt   "Я знал живое заблужденье; Любовь певал я - бы…
 7 corpus/104_Jazykov_1825.txt   "Моя Камена ей певала; Но сила взора красоты Н…
 8 corpus/105_Unknown_1826.txt   "Время быстро Пролетает; Пламя жизни Угасает. …
 9 corpus/11_Pushkin_1820.txt    "Погасло дневное светило;  На море синее вечер…
10 corpus/112_Jazykov_1824.txt   "Скажи: воротишься ли ты,  Моя пленительная ра…
# ℹ 499 more rows

Теперь преобразуем столбец title: оставим только id.

elegies_sep <- elegies_texts |> 
  mutate(title = str_remove(title, "corpus/")) |> 
  separate(title, into = c("id", NA)) |>  # отбрасываем все после id 
  mutate(id = as.numeric(id))

Warning: Expected 2 pieces. Additional pieces discarded in 509 rows [1, 2, 3, 4, 5, 6,
7, 8, 9, 10, 11, 12, 13, 14, 15, 16, 17, 18, 19, 20, ...].

elegies_sep |> 
  print()

# A tibble: 509 × 2
      id text                                                                   
   <dbl> <chr>                                                                  
 1     1 "Надеясь сердца грусть разлукой облегчить, Бежал я милых мест, неверно…
 2    10 "Мечты волшебные, вы скрылись от очей! Сбылися времени угрозы! Хладеет…
 3   100 "Когда, любовию и негой упоенный, Безмолвно пред тобой коленопреклонен…
 4   101 "Счастлив, кто с юношеских дней, Живыми чувствами убогой, Идет просело…
 5   102 "Свободен я: уже не трачу Ни дня, ни ночи, ни стихов За милый взгляд, …
 6   103 "Я знал живое заблужденье; Любовь певал я - были дни: Теперь умчалися …
 7   104 "Моя Камена ей певала; Но сила взора красоты Не мучала, не услаждала М…
 8   105 "Время быстро Пролетает; Пламя жизни Угасает. Нет замены Наслажденьям;…
 9    11 "Погасло дневное светило;  На море синее вечерний пал туман.  Шуми, шу…
10   112 "Скажи: воротишься ли ты,  Моя пленительная радость?  Ужель моя погасн…
# ℹ 499 more rows
…
elegies_clean <- elegies_tokens |> 
  filter(!word %in% sw)

elegies_clean |> 
  print()

# A tibble: 5,993 × 7
      id Author           Year  Source_name   Title First_line             word 
   <dbl> <chr>            <chr> <chr>         <chr> <chr>                  <chr>
 1    10 Баратынский Е.А. 1820  Соревнователь Весна Мечты волшебные, вы с… мечты
 2    10 Баратынский Е.А. 1820  Соревнователь Весна Мечты волшебные, вы с… волш…
 3    10 Баратынский Е.А. 1820  Соревнователь Весна Мечты волшебные, вы с… скры…
 4    10 Баратынский Е.А. 1820  Соревнователь Весна Мечты волшебные, вы с… очей 
 5    10 Баратынский Е.А. 1820  Соревнователь Весна Мечты волшебные, вы с… сбыл…
 6    10 Баратынский Е.А. 1820  Соревнователь Весна Мечты волшебные, вы с… врем…
 7    10 Баратынский Е.А. 1820  Соревнователь Весна Мечты волшебные, вы с… угро…
 8    10 Баратынский Е.А. 1820  Соревнователь Весна Мечты волшебные, вы с… хлад…
 9    10 Баратынский Е.А. 1820  Соревнователь Весна Мечты волшебные, вы с… серд…
10    10 Баратынский Е.А. 1820  Соревнователь Весна Мечты волшебные, вы с… юнос…
# ℹ 5,983 more rows
…
# A tibble: 2 × 2
  Author               n
  <chr>            <int>
1 Баратынский Е.А.  3604
2 Пушкин А.С.       2389

Найдем самые частотные слова у Пушкина и Баратынского. Обратите внимание, что результат вычислений не сохраняется.

elegies_clean |> 
  count(word, sort = TRUE) |> 
  print()

# A tibble: 3,620 × 2
   word       n
   <chr>  <int>
 1 моей      46
 2 любви     41
 3 твой      32
 4 ль        22
 5 любовь    22
 6 друг      21
 7 мечты     21
 8 мной      20
 9 вновь     18
10 душе      17
# ℹ 3,610 more rows

Так мы получили абсолютные значения. Чтобы посчитать долю, немного изменим код:

top_words <- elegies_clean |> 
  group_by(Author) |> 
  count(word, sort = TRUE) |> 
  mutate(perc = (n / sum(n)) * 100) |> 
  arrange(-perc) |> 
  slice_max(n = 10, order_by = perc)

top_words |> 
  print()

# A tibble: 21 × 4
# Groups:   Author [2]
   Author           word          n  perc
   <chr>            <chr>     <int> <dbl>
 1 Баратынский Е.А. моей         31 0.860
 2 Баратынский Е.А. любви        17 0.472
 3 Баратынский Е.А. твой         17 0.472
 4 Баратынский Е.А. душе         14 0.388
 5 Баратынский Е.А. друг         13 0.361
 6 Баратынский Е.А. дней         12 0.333
 7 Баратынский Е.А. ль           12 0.333
 8 Баратынский Е.А. душой        11 0.305
 9 Баратынский Е.А. мечты        11 0.305
10 Баратынский Е.А. последний    11 0.305
# ℹ 11 more rows
…
